<?xml version="1.0" standalone="no"?>
<!DOCTYPE svg PUBLIC "-//W3C//DTD SVG 20010904//EN"
 "http://www.w3.org/TR/2001/REC-SVG-20010904/DTD/svg10.dtd">
<svg version="1.0" xmlns="http://www.w3.org/2000/svg"
 width="512.000000pt" height="512.000000pt" viewBox="0 0 512.000000 512.000000"
 preserveAspectRatio="xMidYMid meet">
<metadata>
Created by potrace 1.11, written by Peter Selinger 2001-2013
</metadata>
<g transform="translate(0.000000,512.000000) scale(0.100000,-0.100000)"
fill="#000000" stroke="none">
<path d="M2448 5105 c-2 -2 -30 -6 -63 -9 -198 -22 -446 -121 -631 -252 -95
-67 -249 -224 -319 -325 -73 -106 -174 -312 -432 -889 -13 -30 -31 -68 -40
-83 -8 -16 -12 -31 -9 -34 3 -3 36 4 73 15 66 21 242 69 286 78 116 24 197 40
280 55 73 13 75 13 192 28 50 7 101 14 115 16 14 2 66 7 115 11 50 3 98 8 107
9 39 8 326 18 493 19 160 0 399 -9 510 -19 22 -2 72 -6 110 -9 39 -4 90 -9
115 -12 25 -4 56 -8 70 -9 14 -2 43 -6 65 -9 22 -3 54 -8 70 -10 147 -20 415
-78 534 -115 33 -10 61 -15 61 -10 0 5 -13 37 -29 71 -37 79 -135 296 -168
368 -13 30 -28 64 -33 75 -79 175 -189 388 -236 455 -114 164 -303 331 -485
427 -66 35 -205 94 -234 99 -5 1 -46 11 -90 22 -44 11 -105 24 -135 28 -54 6
-287 14 -292 9z"/>
<path d="M2417 3443 c-1 -1 -63 -4 -137 -8 -74 -3 -146 -8 -160 -10 -14 -2
-59 -7 -100 -10 -41 -4 -88 -9 -105 -11 -16 -2 -58 -7 -93 -11 l-63 -6 7 -46
c24 -168 138 -360 286 -481 73 -60 215 -131 308 -156 85 -22 274 -27 360 -9
288 62 513 262 609 542 26 77 38 162 22 164 -6 1 -14 2 -18 3 -5 1 -48 6 -98
11 -49 4 -101 9 -115 11 -126 12 -694 26 -703 17z"/>
<path d="M3646 3268 c-22 -101 -40 -157 -72 -224 -13 -28 -24 -54 -24 -57 0
-12 -93 -152 -134 -202 -92 -112 -237 -228 -356 -286 -92 -44 -134 -60 -230
-85 -89 -23 -126 -28 -245 -28 -152 -1 -208 4 -300 29 -268 71 -490 227 -640
451 -89 132 -142 261 -180 437 -5 26 -9 28 -33 22 -15 -4 -34 -8 -42 -10 -103
-22 -387 -106 -408 -121 -2 -1 20 -76 48 -166 59 -185 59 -182 45 -183 -27 -3
-367 -83 -370 -87 -1 -2 -37 -68 -80 -148 -43 -80 -90 -167 -105 -195 -15 -27
-44 -81 -65 -120 -21 -38 -64 -117 -95 -175 -62 -114 -91 -166 -165 -305 -26
-49 -56 -103 -65 -120 -10 -16 -37 -66 -60 -110 -24 -44 -49 -89 -57 -100 -10
-15 -13 -101 -13 -421 l0 -401 420 0 c302 0 420 3 421 11 1 6 2 304 2 663 1
358 5 654 9 658 5 5 3075 10 3388 6 l36 -1 -1 -669 0 -669 423 1 422 0 0 400
0 400 -47 86 c-25 47 -54 100 -63 116 -9 17 -36 66 -60 110 -23 44 -50 94 -60
110 -10 17 -34 62 -55 100 -21 39 -50 93 -65 120 -84 154 -273 501 -310 570
-24 44 -44 81 -45 83 -3 3 -253 63 -320 77 -16 3 -37 8 -45 9 -19 4 -22 -12
44 200 31 98 54 181 52 184 -15 15 -342 100 -450 117 l-32 6 -18 -83z"/>
<path d="M1320 1700 l-175 -5 0 -840 0 -840 1415 0 1415 0 1 843 0 842 -105 0
c-942 4 -2416 4 -2551 0z m1358 -750 l93 -94 -106 -105 -105 -106 -106 106
-106 106 104 105 c82 83 106 102 118 94 8 -6 56 -54 108 -106z"/>
</g>
</svg>
